[
  {
    "name": "kkybox",
    "id": 297588218
  },
  {
    "name": "malesinbanget",
    "id": 266560985
  },
  {
    "name": "FYAllIDC",
    "id": 253415596
  },
  {
    "name": "gosahbawel",
    "id": 263348787
  },
  {
    "name": "bebekaleyo",
    "id": 901343996
  },
  {
    "name": "Purplepepper",
    "id": 283594304
  }
]